file.vcd
$date Mon Jan 22 22:32:32 2024 $end
$timescale 1us $end
$scope module pf $end
$var wire 1 ! cam_data $end
$var reg 8 # quality $end
$var reg 8 $ data_size $end
$var reg 8 % fec_pool $end
$var wire 1 & fec $end
$var wire 1 * wifi_tx $end
$var reg 8 ( wifi_queue $end
$var wire 1 ) sd_fast_buf $end
$var wire 1 @ sd_slow_buf $end
$var wire 1 ~ fec_spin $end
$var wire 1 ^ wifi_spin $end
$var wire 1 = wifi_done_cb $end
$var wire 1 | fec_ovf $end
$var wire 1 { wifi_ovf $end
$var wire 1 } cam_ovf $end
$var wire 1 ? sd_ovf $end
$upscope $end
$enddefinitions $end
#0
0!
0?
0}
0{
0|
0=
0^
0~
0@
0)
b00000000 (
0*
0&
b00000000 %
b00000000 $
b00000000 #
0!
#176
1!
b00000010 $
#208
b00000111 %
b00000100 $
#224
0!
1!
b00000100 $
b00000110 %
#240
b00000101 $
#272
b00000101 %
b00000110 $
#288
0!
#304
1&
b00000001 (
#320
0&
1&
b00000010 (
#336
0&
1&
b00000100 (
#608
b00000101 (
#832
b00000111 (
#1072
b00001000 (
#1296
b00001010 (
#1520
b00001011 (
#1760
b00001101 (
b00000110 %
b00000111 %
#1776
b00001000 %
b00001001 %
b00001010 %
b00001011 %
0&
#1792
1*
#1888
b00001011 (
#2272
1=
#2304
0*
1*
#2368
b00001010 (
#2752
0=
#2768
0*
1*
#2848
b00001000 (
#3216
1=
#3232
0*
#3248
1*
#3312
b00000111 (
#3696
0=
#3712
0*
1*
#3792
b00000101 (
#4160
1=
#4176
0*
1*
#4256
b00000100 (
#4624
0=
#4656
0*
1*
#4720
b00000010 (
#5104
1=
#5120
0*
1*
#5200
b00000001 (
#5632
0=
#5648
0*
1*
#5728
b00000000 (
#8752
1=
#8768
0*
#9904
1!
#9920
b00000111 $
#9936
b00001010 %
b00001000 $
#9984
0!
1!
#10000
b00001000 $
#10032
b00001001 %
b00001001 $
#10048
b00001000 %
#10064
b00001010 $
0!
#10080
1&
b00000001 (
0&
#10096
1&
b00000010 (
0&
#10112
1&
b00000100 (
0&
#10128
1*
#10192
b00000010 (
#10864
0=
#10880
0*
#10896
1*
#10960
b00000001 (
#11728
1=
#11744
0*
1*
#11824
b00000000 (
#12192
0=
#12208
0*
#19888
1!
b00001011 $
#19936
b00000111 %
b00001011 $
#19968
b00100100 #
#19984
b00000000 $
#20000
0!
1!
0!
#20016
1!
b00000110 %
b00000001 $
#20080
b00000101 %
b00000010 $
#20112
0!
1&
#20128
b00000001 (
0&
1&
#20144
b00000010 (
0&
1&
b00000100 (
#20432
b00000101 (
#20672
b00000111 (
#20912
b00001000 (
#21152
b00001010 (
#21360
b00001011 (
#21616
b00001101 (
b00000110 %
b00000111 %
b00001000 %
b00001001 %
#21632
b00001010 %
b00001011 %
0&
#21648
1*
#21744
b00001011 (
#22112
1=
#22144
0*
#22160
1*
#22224
b00001010 (
#22608
0=
#22624
0*
1*
#22704
b00001000 (
#23072
1=
#23088
0*
1*
#23168
b00000111 (
#23536
0=
#23568
0*
1*
#23632
b00000101 (
#24016
1=
#24032
0*
1*
#24112
b00000100 (
#24480
0=
#24496
0*
#24512
1*
#24576
b00000010 (
#24944
1=
#24976
0*
1*
#25040
b00000001 (
#25424
0=
#25440
0*
1*
#25520
b00000000 (
#25888
1=
#25904
0*
#29888
1!
#29904
b00000010 $
#29936
b00001010 %
b00000100 $
#29952
0!
1!
b00000100 $
#29968
b00001001 %
b00000101 $
#30016
b00001000 %
b00000110 $
#30032
0!
#30048
1&
#30064
b00000001 (
0&
1&
b00000010 (
#30080
0&
1&
b00000100 (
0&
#30096
1*
#30176
b00000011 (
#30544
0=
#30560
0*
#30576
1*
#30640
b00000001 (
#34272
1=
#34288
0*
1*
#34368
b00000000 (
#34736
0=
#34752
0*
#39888
1!
b00000111 $
#39904
b00000111 %
b00001000 $
#39952
0!
1&
#39968
b00000001 (
0&
#39984
1*
#40048
b00000000 (
#43520
1=
#43536
0*
#49888
1!
b00001000 $
#49920
b00000110 %
b00001001 $
#49968
b00000101 %
#49984
b00001010 $
0!
1!
#50000
b00001011 $
#50032
b00000100 %
b00001011 $
#50064
b00100100 #
b00000000 $
#50096
0!
1&
#50112
b00000001 (
0&
1&
#50128
b00000010 (
#50384
b00000100 (
#50624
b00000101 (
#50864
b00000111 (
#51104
b00001000 (
#51312
b00001010 (
#51568
b00001011 (
b00000101 %
b00000110 %
b00000111 %
b00001000 %
#51584
b00001001 %
b00001010 %
0&
1&
#51600
b00001101 (
0&
1&
b00001110 (
#51616
0&
1*
#51728
b00001101 (
#52112
0=
#52144
0*
1*
#52224
b00001011 (
#52592
1=
#52608
0*
#52624
1*
#52688
b00001010 (
#53056
0=
#53088
0*
1*
#53152
b00001000 (
#53536
1=
#53552
0*
1*
#53632
b00000111 (
#54000
0=
#54016
0*
#54032
1*
#54096
b00000101 (
#54480
1=
#54496
0*
1*
#54576
b00000100 (
#55024
0=
#55056
0*
1*
#55120
b00000010 (
#55504
1=
#55520
0*
1*
#55600
b00000001 (
#55968
0=
#55984
0*
#56000
1*
#56064
b00000000 (
#56432
1=
#56464
0*
#60128
1!
#60144
0!
1!
b00001001 %
b00000001 $
#60208
b00001000 %
b00000010 $
#60240
0!
#60256
1!
b00000010 $
#60288
b00000111 %
b00000100 $
#60304
0!
#60320
1&
#60336
b00000001 (
0&
#60352
1&
b00000010 (
0&
#60368
1*
#60448
b00000001 (
#60832
0=
#60848
0*
1*
#60928
b00000000 (
#61296
1=
#61312
0*
#69888
1!
#69904
b00000100 $
b00000110 %
b00000101 $
#69968
b00000101 %
b00000110 $
#69984
0!
1!
b00000111 $
#70016
b00000100 %
b00001000 $
#70064
0!
1&
#70080
b00000001 (
0&
1&
#70096
b00000010 (
#70352
b00000100 (
#70592
b00000101 (
#70848
b00000111 (
#71072
b00001000 (
#71296
b00001010 (
#71552
b00001011 (
b00000101 %
#71568
b00000110 %
b00000111 %
b00001000 %
b00001001 %
b00001010 %
#71584
0&
1&
b00001101 (
0&
#71600
1*
#71712
b00001011 (
#72080
0=
#72112
0*
#72128
1*
#72192
b00001010 (
#72576
1=
#72592
0*
1*
#72672
b00001000 (
#73040
0=
#73056
0*
1*
#73136
b00000111 (
#73504
1=
#73536
0*
1*
#73600
b00000101 (
#73984
0=
#74000
0*
1*
#74080
b00000100 (
#74448
1=
#74464
0*
#74480
1*
#74544
b00000010 (
#74912
0=
#74944
0*
1*
#75008
b00000001 (
#75392
1=
#75408
0*
1*
#75488
b00000000 (
#75856
0=
#75872
0*
#79904
1!
b00001000 $
#79936
b00001001 %
#79952
b00001001 $
#80016
b00001000 %
b00001010 $
0!
#80032
1!
b00001011 $
#80080
b00000111 %
#80096
b00001011 $
#80128
b00100100 #
b00000000 $
#80176
0!
#80192
1&
b00000001 (
0&
#80208
1&
b00000010 (
0&
1&
#80224
b00000100 (
0&
1&
#80240
b00000101 (
0&
#80256
1*
#80336
b00000100 (
#80720
1=
#80736
0*
1*
#80816
b00000010 (
#82512
0=
#82528
0*
1*
#82608
b00000001 (
#82992
1=
#83008
0*
1*
#83072
b00000000 (
#83456
0=
#83472
0*
#89888
1!
0!
1!
#89904
b00000110 %
b00000001 $
#89936
b00000101 %
b00000010 $
#89984
0!
1&
#90000
b00000001 (
#90272
b00000010 (
#90512
b00000100 (
#90736
b00000101 (
#90960
b00000111 (
#91184
b00001000 (
#91424
b00001010 (
b00000110 %
b00000111 %
b00001000 %
#91440
b00001001 %
b00001010 %
b00001011 %
0&
#91456
1*
#91536
b00001000 (
#92816
1=
#92848
0*
#92864
1*
#92928
b00000111 (
#93296
0=
#93328
0*
1*
#93392
b00000101 (
#93776
1=
#93792
0*
1*
#93872
b00000100 (
#96160
0=
#96176
0*
1*
#96256
b00000010 (
#96624
1=
#96640
0*
#96656
1*
#96720
b00000001 (
#97088
0=
#97120
0*
1*
#97184
b00000000 (
#97568
1=
#97584
0*
#99904
1!
b00000010 $
#99936
b00001010 %
#99952
b00000100 $
0!
#99968
1!
b00000100 $
b00001001 %
b00000101 $
#100032
b00001000 %
b00000110 $
#100048
0!
#100064
1&
#100080
b00000001 (
0&
1&
b00000010 (
#100096
0&
1&
b00000100 (
0&
#100112
1*
#100192
b00000010 (
#100560
0=
#100592
0*
1*
#100656
b00000001 (
#101520
1=
#101536
0*
1*
#101616
b00000000 (
#101984
0=
#102000
0*
#109888
1!
b00000111 $
#109904
b00000111 %
b00001000 $
#109952
0!
1!
b00001000 $
#109984
b00000110 %
#110000
b00001001 $
#110016
b00000101 %
b00001010 $
#110032
0!
#110048
1&
b00000001 (
0&
1&
#110064
b00000010 (
0&
1&
#110080
b00000100 (
#110336
b00000101 (
#110560
b00000111 (
#110816
b00001000 (
#111040
b00001010 (
#111264
b00001100 (
#111504
b00001101 (
b00000110 %
#111520
b00000111 %
b00001000 %
b00001001 %
b00001010 %
b00001011 %
#111536
0&
1*
#111632
b00001100 (
#113408
1=
#113440
0*
1*
#113520
b00001010 (
#113888
0=
#113904
0*
1*
#113984
b00001001 (
#114352
1=
#114384
0*
1*
#114448
b00000111 (
#114832
0=
#114848
0*
1*
#114928
b00000110 (
#115296
1=
#115312
0*
#115328
1*
#115392
b00000100 (
#115760
0=
#115792
0*
1*
#115856
b00000010 (
#116608
1=
#116624
0*
#116640
1*
#116704
b00000001 (
#117072
0=
#117104
0*
1*
#117168
b00000000 (
#117552
1=
#117568
0*
#119888
1!
#119904
b00001011 $
#119952
b00001010 %
b00001011 $
#120000
b00100100 #
b00000000 $
#120016
0!
#120032
1!
0!
1!
b00001001 %
b00000001 $
#120080
b00001000 %
b00000010 $
#120112
0!
#120128
1&
b00000001 (
0&
1&
#120144
b00000010 (
0&
1&
#120160
b00000100 (
0&
#120176
1*
#120256
b00000010 (
#120640
0=
#120656
0*
1*
#120736
b00000001 (
#121104
1=
#121120
0*
#121136
1*
#121200
b00000000 (
#121568
0=
#121600
0*
#129888
1!
b00000010 $
#129920
b00000111 %
#129936
b00000100 $
#129952
0!
1!
b00000100 $
b00000110 %
b00000101 $
#130016
b00000101 %
b00000110 $
#130032
0!
1&
#130048
b00000001 (
0&
1&
#130064
b00000010 (
0&
1&
#130080
b00000100 (
#130336
b00000101 (
#130560
b00000111 (
#130816
b00001000 (
#131040
b00001010 (
#131248
b00001011 (
#131504
b00001101 (
b00000110 %
b00000111 %
b00001000 %
#131520
b00001001 %
b00001010 %
b00001011 %
0&
#131536
1*
#131632
b00001011 (
#132016
1=
#132048
0*
1*
#132128
b00001010 (
#132496
0=
#132512
0*
1*
#132592
b00001000 (
#132960
1=
#132992
0*
1*
#133056
b00000111 (
#136560
0=
#136576
0*
#136592
1*
#136656
b00000101 (
#137040
1=
#137056
0*
1*
#137136
b00000100 (
#137504
0=
#137520
0*
1*
#137600
b00000010 (
#137968
1=
#138000
0*
1*
#138064
b00000001 (
#138448
0=
#138464
0*
1*
#138544
b00000000 (
#138944
1=
#138960
0*
#139904
1!
b00000111 $
#139920
b00001010 %
#139936
b00001000 $
#140000
1&
b00000001 (
0&
#140032
0!
1!
b00001000 $
#140064
b00001001 %
b00001001 $
#140096
b00001000 %
b00001010 $
0!
#140112
1*
#140192
1&
b00000010 (
0&
#140208
1&
b00000100 (
0&
#140224
b00000010 (
#140592
0=
#140624
0*
1*
#140688
b00000001 (
#141088
1=
#141104
0*
1*
#141184
b00000000 (
#141552
0=
#141568
0*
#149888
1!
b00001011 $
#149952
b00000111 %
b00001011 $
#150000
b00100100 #
b00000000 $
#150016
0!
#150032
1&
b00000001 (
#150048
0&
1&
b00000010 (
#150064
0&
1*
#150144
b00000001 (
#150560
1=
#150576
0*
1*
#150656
b00000000 (
#151424
0=
#151440
0*
#159888
1!
#159904
0!
1!
b00000110 %
b00000001 $
#159952
b00000101 %
b00000010 $
#159968
0!
1!
#159984
b00000010 $
#160016
b00000100 %
b00000100 $
#160048
0!
#160064
1&
b00000001 (
#160336
b00000010 (
#160576
b00000100 (
#160816
b00000101 (
#161056
b00000111 (
#161280
b00001000 (
#161520
b00001010 (
b00000101 %
b00000110 %
b00000111 %
#161536
b00001000 %
b00001001 %
b00001010 %
0&
1&
#161552
b00001011 (
0&
#161568
1*
#161648
b00001010 (
#162032
1=
#162064
0*
1*
#162144
b00001000 (
#162512
0=
#162528
0*
#162544
1*
#162608
b00000111 (
#162976
1=
#163008
0*
1*
#163072
b00000101 (
#163456
0=
#163472
0*
1*
#163552
b00000100 (
#163920
1=
#163936
0*
#163952
1*
#164016
b00000010 (
#164384
0=
#164416
0*
1*
#164480
b00000001 (
#166640
1=
#166656
0*
1*
#166736
b00000000 (
#167104
0=
#167136
0*
#169904
1!
b00000100 $
b00001001 %
#169920
b00000101 $
#169968
b00001000 %
b00000110 $
#169984
0!
1!
b00000111 $
#170000
b00000111 %
b00001000 $
#170048
0!
1&
#170064
b00000001 (
0&
1&
#170080
b00000010 (
0&
1&
#170096
b00000100 (
0&
1*
#170176
b00000010 (
#170560
1=
#170576
0*
1*
#170640
b00000001 (
#171024
0=
#171040
0*
1*
#171120
b00000000 (
#171488
1=
#171504
0*
#179888
1!
b00001000 $
#179920
b00000110 %
b00001001 $
#179936
b00000101 %
#179952
b00001010 $
0!
1!
#179968
b00001011 $
#180000
b00000100 %
#180016
b00001011 $
#180048
b00100100 #
b00000000 $
#180080
b00000011 %
0!
#180096
1&
b00000001 (
0&
#180112
1&
b00000010 (
#180368
b00000100 (
#180608
b00000101 (
#180848
b00000111 (
#181072
b00001000 (
#181296
b00001010 (
#181536
b00001011 (
b00000100 %
#181552
b00000101 %
b00000110 %
b00000111 %
b00001000 %
b00001001 %
0&
#181568
1&
b00001101 (
0&
1&
#181584
b00001110 (
0&
1&
#181600
b00010000 (
0&
1*
#181712
b00001110 (
#182400
0=
#182432
0*
1*
#182512
b00001101 (
#182880
1=
#182896
0*
1*
#182976
b00001011 (
#183344
0=
#183376
0*
1*
#183440
b00001010 (
#184256
1=
#184272
0*
#184288
1*
#184352
b00001000 (
#184720
0=
#184752
0*
1*
#184816
b00000111 (
#185200
1=
#185216
0*
1*
#185296
b00000101 (
#185664
0=
#185680
0*
#185696
1*
#185760
b00000100 (
#186144
1=
#186160
0*
1*
#186240
b00000010 (
#186608
0=
#186624
0*
1*
#186704
b00000001 (
#187072
1=
#187104
0*
1*
#187168
b00000000 (
#187552
0=
#187568
0*
#190160
1!
#190176
0!
1!
b00001000 %
b00000001 $
#190224
b00000111 %
b00000010 $
#190256
0!
1!
#190272
b00000010 $
#190304
b00000110 %
b00000100 $
#190352
0!
#190368
1&
#190384
b00000001 (
0&
1&
#190400
b00000011 (
0&
#190416
1*
#190496
b00000001 (
#190864
1=
#190880
0*
1*
#190960
b00000000 (
#191328
0=
#191360
0*
#199888
1!
b00000100 $
#199904
b00000101 %
b00000101 $
#199968
b00000100 %
b00000110 $
#199984
0!
1&
#200000
b00000001 (
#200256
b00000010 (
#200496
b00000100 (
#200736
b00000101 (
#200960
b00000111 (
#201184
b00001000 (
#201440
b00001010 (
b00000101 %
b00000110 %
b00000111 %
#201456
b00001000 %
b00001001 %
b00001010 %
0&
1&
#201472
b00001011 (
0&
#201488
1*
#201584
b00001010 (
#202224
1=
#202256
0*
1*
#202320
b00001000 (
#202704
0=
#202720
0*
1*
#202800
b00000111 (
#203168
1=
#203184
0*
#203200
1*
#203264
b00000101 (
#203648
0=
#203664
0*
1*
#203744
b00000100 (
#204112
1=
#204128
0*
1*
#204208
b00000010 (
#204576
0=
#204608
0*
1*
#204672
b00000001 (
#205056
1=
#205072
0*
1*
#205152
b00000000 (
#205520
0=
#205536
0*
#209904
1!
b00000111 $
#209936
b00001001 %
b00001000 $
#209984
0!
1!
b00001000 $
#210016
b00001000 %
b00001001 $
#210048
b00000111 %
#210064
b00001010 $
0!
#210080
1&
b00000001 (
#210096
0&
1&
b00000010 (
0&
#210112
1&
b00000100 (
0&
#210128
1*
#210192
b00000010 (
#210576
1=
#210592
0*
1*
#210672
b00000001 (
#213568
0=
#213584
0*
#213600
1*
#213664
b00000000 (
#214032
1=
#214064
0*
#219888
1!
b00001011 $
#219952
b00000110 %
b00001011 $
#219984
b00100100 #
#220000
b00000000 $
#220032
b00000101 %
#220192
0!
#220208
1!
0!
1!
b00000100 %
b00000001 $
#220256
b00000011 %
b00000010 $
#220288
0!
1&
#220304
b00000001 (
0&
1&
#220320
b00000010 (
#220592
b00000100 (
#220832
b00000101 (
#221056
b00000111 (
#221296
b00001000 (
#221504
b00001010 (
#221744
b00001011 (
#221760
b00000100 %
b00000101 %
b00000110 %
b00000111 %
#221776
b00001000 %
b00001001 %
0&
1&
b00001101 (
#221792
0&
1&
b00001110 (
#221808
0&
1*
#221920
b00001101 (
#222544
0=
#222576
0*
1*
#222656
b00001011 (
#223024
1=
#223040
0*
#223056
1*
#223120
b00001010 (
#223488
0=
#223520
0*
1*
#223584
b00001000 (
#223968
1=
#223984
0*
1*
#224064
b00000111 (
#224432
0=
#224448
0*
#224464
1*
#224528
b00000101 (
#224912
1=
#224928
0*
1*
#224992
b00000100 (
#225376
0=
#225392
0*
1*
#225472
b00000010 (
#225840
1=
#225856
0*
#225872
1*
#225936
b00000001 (
#226320
0=
#226336
0*
1*
#226416
b00000000 (
#226784
1=
#226800
0*
#229904
1!
b00000010 $
#229936
b00001000 %
b00000100 $
#229952
0!
1!
b00000100 $
#229968
b00000111 %
b00000101 $
#230032
b00000110 %
b00000110 $
#230048
0!
#230064
1&
b00000001 (
#230080
0&
1&
b00000010 (
#230096
0&
1&
b00000100 (
0&
#230112
1*
#230208
b00000010 (
#230576
0=
#230608
0*
1*
#230672
b00000001 (
#231056
1=
#231072
0*
1*
#231152
b00000000 (
#231520
0=
#231536
0*
#239888
1!
b00000111 $
#239904
b00000101 %
b00001000 $
#239936
0!
1!
#239952
b00001000 $
#239984
b00000100 %
b00001001 $
#240000
b00000011 %
b00001010 $
#240016
0!
1&
#240032
b00000001 (
#240288
b00000010 (
#240512
b00000100 (
#240768
b00000101 (
#240992
b00000111 (
#241216
b00001000 (
#241472
b00001010 (
b00000100 %
b00000101 %
b00000110 %
b00000111 %
#241488
b00001000 %
b00001001 %
0&
1&
#241504
b00001011 (
0&
1&
b00001101 (
#241520
0&
1*
#241632
b00001011 (
#242112
1=
#242144
0*
#242160
1*
#242224
b00001010 (
#242672
0=
#242688
0*
1*
#242768
b00001000 (
#243136
1=
#243152
0*
#243168
1*
#243232
b00000111 (
#243616
0=
#243632
0*
1*
#243712
b00000101 (
#244080
1=
#244096
0*
1*
#244176
b00000100 (
#244544
0=
#244576
0*
1*
#244640
b00000010 (
#248368
1=
#248384
0*
1*
#248464
b00000001 (
#248832
0=
#248848
0*
1*
#248928
b00000000 (
#249296
1=
#249312
0*
#249888
1!
#249904
b00001011 $
#249936
b00001000 %
b00001011 $
#249968
b00100100 #
#249984
b00000000 $
#250000
0!
1!
#250016
0!
1!
b00000111 %
b00000001 $
#250064
b00000110 %
b00000010 $
#250080
0!
#250096
1&
#250112
b00000001 (
0&
1&
#250128
b00000010 (
0&
1&
b00000100 (
#250144
0&
1*
#250240
b00000010 (
#250608
0=
#250624
0*
#250640
1*
#250704
b00000001 (
#251072
1=
#251104
0*
1*
#251168
b00000000 (
#251552
0=
#251568
0*
#259904
1!
b00000010 $
#259920
b00000101 %
b00000100 $
#259936
0!
#259952
1&
b00000001 (
#260208
b00000010 (
#260448
b00000100 (
#260688
b00000101 (
#260912
b00000111 (
#261120
b00001000 (
#261376
b00001010 (
b00000110 %
b00000111 %
b00001000 %
#261392
b00001001 %
b00001010 %
b00001011 %
0&
#261408
1*
#261504
b00001001 (
#261872
1=
#261904
0*
#261920
1*
#261984
b00000111 (
#262352
0=
#262384
0*
1*
#262448
b00000110 (
#262832
1=
#262848
0*
1*
#262928
b00000100 (
#263296
0=
#263312
0*
#263328
1*
#263392
b00000011 (
#263776
1=
#263792
0*
1*
#263872
b00000001 (
#264240
0=
#264256
0*
#264272
1*
#264336
b00000000 (
#264720
1=
#264736
0*
#269888
1!
#269904
b00000100 $
b00001010 %
b00000101 $
#269968
b00001001 %
b00000110 $
#269984
0!
#270000
1!
b00000111 $
#270016
b00001000 %
b00001000 $
#270048
0!
#270064
1&
b00000001 (
0&
#270080
1&
b00000010 (
0&
1&
#270096
b00000100 (
0&
#270112
1*
#270208
b00000010 (
#270864
0=
#270896
0*
1*
#270960
b00000001 (
#271344
1=
#271360
0*
1*
#271440
b00000000 (
#271808
0=
#271824
0*
#279904
1!
b00001000 $
#279952
b00000111 %
b00001001 $
#279968
b00000110 %
b00001010 $
#279984
0!
1!
b00001011 $
#280032
b00000101 %
b00001011 $
#280064
b00100010 #
b00000000 $
#280096
0!
1&
#280112
b00000001 (
0&
1&
#280128
b00000010 (
0&
1&
#280144
b00000100 (
#280400
b00000101 (
#280624
b00000111 (
#280880
b00001000 (
#281104
b00001010 (
#281328
b00001011 (
#281584
b00001101 (
b00000110 %
b00000111 %
b00001000 %
b00001001 %
#281600
b00001010 %
b00001011 %
0&
1&
#281616
b00001110 (
0&
1*
#281728
b00001101 (
#282112
1=
#282144
0*
1*
#282224
b00001011 (
#282592
0=
#282608
0*
#282624
1*
#282688
b00001010 (
#283056
1=
#283088
0*
1*
#283152
b00001000 (
#283536
0=
#283552
0*
1*
#283632
b00000111 (
#284000
1=
#284016
0*
#284032
1*
#284096
b00000101 (
#284480
0=
#284496
0*
1*
#284576
b00000100 (
#284944
1=
#284960
0*
1*
#285040
b00000010 (
#285408
0=
#285440
0*
1*
#285504
b00000001 (
#285888
1=
#285904
0*
1*
#285984
b00000000 (
#286352
0=
#286368
0*
#289904
1!
0!
1!
b00001010 %
b00000001 $
#289952
b00001001 %
b00000010 $
#289984
0!
1!
b00000010 $
#290016
b00001000 %
b00000100 $
#290032
0!
1&
#290048
b00000001 (
0&
1&
#290064
b00000010 (
0&
#290080
1*
#290160
b00000001 (
#290528
1=
#290544
0*
1*
#290624
b00000000 (
#290992
0=
#291024
0*
#300000
1!
#300016
b00000100 $
b00000111 %
b00000101 $
#300064
b00000110 %
#300080
b00000110 $
#300096
0!
1!
b00000111 $
#300128
b00000101 %
b00001000 $
#300176
0!
#300192
1&
b00000001 (
0&
1&
#300208
b00000010 (
0&
1&
#300224
b00000100 (
#300496
b00000101 (
#300736
b00000111 (
#300992
b00001000 (
#301216
b00001010 (
#301424
b00001011 (
#301680
b00001101 (
b00000110 %
b00000111 %
b00001000 %
#301696
b00001001 %
b00001010 %
b00001011 %
0&
#301712
1*
#301808
b00001011 (
#302192
1=
#302224
0*
1*
#302304
b00001010 (
#302672
0=
#302688
0*
1*
#302768
b00001000 (
#303136
1=
#303168
0*
1*
#303232
b00000111 (
#303616
0=
#303632
0*
1*
#303712
b00000101 (
#304640
1=
#304672
0*
1*
#304752
b00000100 (
#305264
0=
#305280
0*
#305296
1*
#305360
b00000010 (
#305728
1=
#305760
0*
1*
#305824
b00000001 (
#306208
0=
#306224
0*
1*
#306304
b00000000 (
#306672
1=
#306688
0*
#309904
1!
b00001000 $
#309936
b00001010 %
b00001001 $
#309968
b00001001 %
b00001010 $
#309984
0!
1&
#310000
b00000001 (
0&
1&
#310016
b00000010 (
0&
1*
#310096
b00000001 (
#310464
0=
#310480
0*
#310496
1*
#310560
b00000000 (
#310944
1=
#310960
0*
#320128
1!
b00001011 $
#320176
b00001000 %
b00001011 $
#320208
b00100010 #
b00000000 $
#320272
0!
1!
0!
1!
#320288
b00000111 %
b00000001 $
#320320
b00000110 %
b00000010 $
#320352
0!
#320368
1&
#320384
b00000001 (
0&
1&
#320400
b00000010 (
0&
1&
b00000100 (
#320416
0&
1*
#320512
b00000010 (
#320960
0=
#320992
0*
1*
#321056
b00000001 (
#321440
1=
#321456
0*
1*
#321536
b00000000 (
#321904
0=
#321920
0*
#329888
1!
#329904
b00000010 $
#329936
b00000101 %
b00000100 $
#329968
0!
1!
b00000100 $
#329984
b00000100 %
b00000101 $
#330032
b00000011 %
b00000110 $
#330064
0!
1&
#330080
b00000001 (
#330352
b00000010 (
#330608
b00000100 (
#330848
b00000101 (
#331088
b00000111 (
#331296
b00001000 (
#331568
b00001010 (
b00000100 %
b00000101 %
b00000110 %
b00000111 %
#331584
b00001000 %
b00001001 %
0&
1&
#331600
b00001011 (
0&
1&
b00001101 (
#331616
0&
1*
#331728
b00001011 (
#332096
1=
#332128
0*
1*
#332208
b00001010 (
#332576
0=
#332608
0*
1*
#332672
b00001000 (
#333056
1=
#333072
0*
1*
#333152
b00000111 (
#333520
0=
#333536
0*
#333552
1*
#333616
b00000101 (
#333984
1=
#334016
0*
1*
#334080
b00000100 (
#334464
0=
#334480
0*
1*
#334560
b00000010 (
#334928
1=
#334960
0*
1*
#335024
b00000001 (
#335488
0=
#335520
0*
1*
#335584
b00000000 (
#336528
1=
#336560
0*
#339904
1!
b00000111 $
#339968
b00001000 %
#339984
b00001000 $
#340016
0!
1!
b00001000 $
#340064
b00000111 %
b00001001 $
#340096
b00000110 %
b00001010 $
0!
#340112
1&
b00000001 (
#340128
0&
1&
b00000010 (
#340144
0&
1&
b00000100 (
0&
#340160
1*
#340240
b00000010 (
#341344
0=
#341376
0*
1*
#341440
b00000001 (
#341824
1=
#341840
0*
1*
#341920
b00000000 (
#342288
0=
#342304
0*
#349888
1!
b00001011 $
#349936
b00000101 %
#349952
b00001011 $
#349984
b00100010 #
b00000000 $
#350032
0!
1!
0!
1!
#350048
b00000100 %
b00000001 $
#350080
b00000011 %
#350096
b00000010 $
#350112
0!
#350128
1&
b00000001 (
#350416
b00000011 (
#350640
b00000100 (
#350880
b00000110 (
#351136
b00000111 (
#351344
b00001001 (
#351584
b00001010 (
#351600
b00000100 %
b00000101 %
b00000110 %
b00000111 %
b00001000 %
#351616
b00001001 %
0&
1&
b00001100 (
#351632
0&
1&
b00001101 (
0&
#351648
1*
#351760
b00001100 (
#352128
1=
#352160
0*
#352176
1*
#352240
b00001010 (
#352624
0=
#352640
0*
1*
#352720
b00001000 (
#353104
1=
#353120
0*
1*
#353200
b00000111 (
#353568
0=
#353584
0*
1*
#353664
b00000101 (
#354032
1=
#354064
0*
1*
#354128
b00000100 (
#354512
0=
#354528
0*
1*
#354608
b00000010 (
#354976
1=
#354992
0*
#355008
1*
#355072
b00000001 (
#355440
0=
#355472
0*
1*
#355536
b00000000 (
#355920
1=
#355936
0*
#359904
1!
b00000010 $
#359936
b00001000 %
b00000100 $
#359952
0!
1!
b00000100 $
#359968
b00000111 %
b00000101 $
#360016
b00000110 %
#360032
b00000110 $
#360048
0!
1&
#360064
b00000001 (
0&
1&
#360080
b00000010 (
0&
1&
b00000100 (
#360096
0&
1*
#360176
b00000010 (
#360560
0=
#360576
0*
1*
#360640
b00000001 (
#361024
1=
#361040
0*
1*
#361120
b00000000 (
#361488
0=
#361504
0*
#369888
1!
b00000111 $
#369904
b00000101 %
b00001000 $
#369952
0!
#369968
1&
b00000001 (
#370208
b00000010 (
#370448
b00000100 (
#370704
b00000101 (
#370928
b00000111 (
#371152
b00001000 (
#371392
b00001010 (
#371408
b00000110 %
b00000111 %
b00001000 %
b00001001 %
b00001010 %
#371424
b00001011 %
0&
1*
#371520
b00001000 (
#371904
1=
#371936
0*
1*
#372000
b00000111 (
#372384
0=
#372400
0*
1*
#372480
b00000101 (
#372848
1=
#372864
0*
#372880
1*
#372944
b00000100 (
#373312
0=
#373344
0*
1*
#373408
b00000010 (
#373792
1=
#373808
0*
1*
#373888
b00000001 (
#374256
0=
#374272
0*
#374288
1*
#374352
b00000000 (
#374720
1=
#374752
0*
#379888
1!
b00001000 $
#379936
b00001010 %
b00001001 $
#379952
b00001001 %
b00001010 $
#379968
0!
1!
b00001011 $
#380016
b00001000 %
b00001011 $
#380048
b00100010 #
b00000000 $
#380080
0!
#380096
1&
b00000001 (
0&
1&
#380112
b00000010 (
0&
1&
#380128
b00000100 (
0&
1&
#380144
b00000101 (
0&
1*
#380240
b00000100 (
#380736
0=
#380752
0*
1*
#380832
b00000010 (
#381200
1=
#381216
0*
#381232
1*
#381296
b00000001 (
#382544
0=
#382576
0*
1*
#382640
b00000000 (
#383024
1=
#383040
0*
#389888
1!
0!
1!
#389904
b00000111 %
b00000001 $
#389936
b00000110 %
b00000010 $
#389968
0!
1!
b00000010 $
#390000
b00000101 %
b00000100 $
#390016
0!
#390032
1&
b00000001 (
0&
#390048
1&
b00000010 (
#390320
b00000100 (
#390560
b00000101 (
#390784
b00000111 (
#391008
b00001000 (
#391232
b00001010 (
#391472
b00001011 (
b00000110 %
b00000111 %
b00001000 %
#391488
b00001001 %
b00001010 %
b00001011 %
0&
#391504
1*
#391584
b00001010 (
#391968
0=
#392000
0*
1*
#392064
b00001000 (
#392448
1=
#392464
0*
1*
#392544
b00000111 (
#392912
0=
#392928
0*
#392944
1*
#393008
b00000101 (
#393392
1=
#393408
0*
1*
#393488
b00000100 (
#393856
0=
#393872
0*
1*
#393952
b00000010 (
#394320
1=
#394352
0*
1*
#394416
b00000001 (
#394800
0=
#394816
0*
1*
#394896
b00000000 (
#395264
1=
#395280
0*
#399888
1!
#399904
b00000100 $
b00001010 %
b00000101 $
#399968
b00001001 %
b00000110 $
#399984
0!
1!
b00000111 $
#400000
b00001000 %
b00001000 $
#400048
0!
1&
#400064
b00000001 (
0&
1&
#400080
b00000010 (
0&
1&
b00000100 (
#400096
0&
1*
#400176
b00000010 (
#400560
0=
#400576
0*
1*
#400656
b00000001 (
#401024
1=
#401040
0*
1*
#401120
b00000000 (
#403376
0=
#403392
0*
#409888
1!
b00001000 $
#409920
b00000111 %
b00001001 $
#409936
b00000110 %
#409952
b00001010 $
0!
1!
b00001011 $
#410000
b00000101 %
b00001011 $
